cpu_wavedata.vcd
$date
	Sat Sep 12 08:14:30 2020
$end
$version
	Icarus Verilog
$end
$timescale
	100ps
$end
$scope module testbench $end
$var wire 1 ! WRITEENABLE_MEM $end
$var wire 1 " WRITEENABLE_CACHE $end
$var wire 8 # REGOUT1 [7:0] $end
$var wire 1 $ READENABLE_MEM $end
$var wire 1 % READENABLE_CACHE $end
$var wire 32 & PC [31:0] $end
$var wire 32 ' MEM_WRITEDATA [31:0] $end
$var wire 32 ( MEM_READDATA [31:0] $end
$var wire 1 ) MEM_BUSYWAIT $end
$var wire 6 * MEM_ADDRESS [5:0] $end
$var wire 1 + INSTRUCT_MEM_READENABLE $end
$var wire 128 , INSTRUCT_MEM_READDATA [127:0] $end
$var wire 1 - INSTRUCT_MEM_BUSYWAIT $end
$var wire 6 . INSTRUCT_MEM_ADDRESS [5:0] $end
$var wire 1 / INSTRUCT_CACHE_BUSYWAIT $end
$var wire 10 0 INSTRUCT_ADDRESS [9:0] $end
$var wire 32 1 INSTRUCTION [31:0] $end
$var wire 8 2 CACHE_READDATA [7:0] $end
$var wire 1 3 CACHE_BUSYWAIT $end
$var wire 8 4 ALU_RESULT [7:0] $end
$var reg 1 5 CLK $end
$var reg 1 6 RESET $end
$scope module myCPU $end
$var wire 1 5 CLK $end
$var wire 1 7 PC_SELECT $end
$var wire 1 6 RESET $end
$var wire 8 8 SHIFT_ASR [7:0] $end
$var wire 8 9 SHIFT_LSL [7:0] $end
$var wire 8 : SHIFT_LSR [7:0] $end
$var wire 8 ; SHIFT_ROR [7:0] $end
$var wire 1 < beqAND_OUT $end
$var wire 1 = bneAND_OUT $end
$var wire 32 > updatedPC [31:0] $end
$var wire 32 ? offsettedPC [31:0] $end
$var wire 32 @ newPC [31:0] $end
$var wire 1 A jump_SELECT $end
$var wire 3 B WRITEREG [2:0] $end
$var wire 1 " WRITEENABLE_CACHE $end
$var wire 1 C WRITEENABLE $end
$var wire 3 D SHIFT_AMOUNT [2:0] $end
$var wire 8 E SELECT_32x1_MUXOUT [7:0] $end
$var wire 3 F SELECT_32x1 [2:0] $end
$var wire 1 G RegFileInMUX_SEL $end
$var wire 8 H ROR_SHIFTER_OUT [7:0] $end
$var wire 8 I REGWRITE_FINAL [7:0] $end
$var wire 8 J REGOUT2 [7:0] $end
$var wire 8 K REGOUT1 [7:0] $end
$var wire 3 L READREG2 [2:0] $end
$var wire 3 M READREG1 [2:0] $end
$var wire 1 % READENABLE_CACHE $end
$var wire 8 N PC_offset [7:0] $end
$var wire 32 O PC [31:0] $end
$var wire 8 P OPERAND2 [7:0] $end
$var wire 8 Q LSR_SHIFTER_OUT [7:0] $end
$var wire 8 R LSL_SHIFTER_OUT [7:0] $end
$var wire 1 S InvtMUX_SELECT $end
$var wire 8 T Inverter_MUX_OUT [7:0] $end
$var wire 1 U ImMUX_SELECT $end
$var wire 1 / INSTRUCT_CACHE_BUSYWAIT $end
$var wire 32 V INSTRCT_ARRAY [31:0] $end
$var wire 8 W IM_INPUT [7:0] $end
$var wire 8 X COMPLIMENT [7:0] $end
$var wire 1 Y COMPARATOR $end
$var wire 8 Z CACHE_READDATA [7:0] $end
$var wire 1 3 CACHE_BUSYWAIT $end
$var wire 1 [ BNE_SELECT $end
$var wire 1 \ BEQ_SELECT $end
$var wire 8 ] ASR_SHIFTER_OUT [7:0] $end
$var wire 8 ^ ALU_RESULT [7:0] $end
$var wire 3 _ ALU_OP [2:0] $end
$scope module myALU $end
$var wire 1 Y COMPARATOR $end
$var wire 8 ` TEMP_AND [7:0] $end
$var wire 8 a TEMP_FWD [7:0] $end
$var wire 8 b TEMP_OR [7:0] $end
$var wire 8 c TEMP_ADD [7:0] $end
$var wire 8 d OPERAND2 [7:0] $end
$var wire 8 e OPERAND1 [7:0] $end
$var wire 3 f ALU_OP [2:0] $end
$var reg 8 g ALU_RESULT [7:0] $end
$upscope $end
$scope module myBarrelShifter_ASR $end
$var wire 8 h INPUT [7:0] $end
$var wire 3 i SHIFT_AMOUNT [2:0] $end
$var wire 8 j SHIFTED_OUTPUT [7:0] $end
$var wire 8 k INTERIM_2 [7:0] $end
$var wire 8 l INTERIM_1 [7:0] $end
$scope module MUX_C0R0 $end
$var wire 1 m INPUT1 $end
$var wire 1 n INPUT2 $end
$var wire 1 o SELECT $end
$var wire 1 p OUTPUT $end
$upscope $end
$scope module MUX_C0R1 $end
$var wire 1 q INPUT1 $end
$var wire 1 r INPUT2 $end
$var wire 1 s SELECT $end
$var wire 1 t OUTPUT $end
$upscope $end
$scope module MUX_C0R2 $end
$var wire 1 u INPUT1 $end
$var wire 1 v INPUT2 $end
$var wire 1 w SELECT $end
$var wire 1 x OUTPUT $end
$upscope $end
$scope module MUX_C0R3 $end
$var wire 1 y INPUT1 $end
$var wire 1 z INPUT2 $end
$var wire 1 { SELECT $end
$var wire 1 | OUTPUT $end
$upscope $end
$scope module MUX_C0R4 $end
$var wire 1 } INPUT1 $end
$var wire 1 ~ INPUT2 $end
$var wire 1 !" SELECT $end
$var wire 1 "" OUTPUT $end
$upscope $end
$scope module MUX_C0R5 $end
$var wire 1 #" INPUT1 $end
$var wire 1 $" INPUT2 $end
$var wire 1 %" SELECT $end
$var wire 1 &" OUTPUT $end
$upscope $end
$scope module MUX_C0R6 $end
$var wire 1 '" INPUT1 $end
$var wire 1 (" INPUT2 $end
$var wire 1 )" SELECT $end
$var wire 1 *" OUTPUT $end
$upscope $end
$scope module MUX_C0R7 $end
$var wire 1 +" INPUT1 $end
$var wire 1 ," INPUT2 $end
$var wire 1 -" SELECT $end
$var wire 1 ." OUTPUT $end
$upscope $end
$scope module MUX_C1R0 $end
$var wire 1 /" INPUT1 $end
$var wire 1 0" INPUT2 $end
$var wire 1 1" SELECT $end
$var wire 1 2" OUTPUT $end
$upscope $end
$scope module MUX_C1R1 $end
$var wire 1 3" INPUT1 $end
$var wire 1 4" INPUT2 $end
$var wire 1 5" SELECT $end
$var wire 1 6" OUTPUT $end
$upscope $end
$scope module MUX_C1R2 $end
$var wire 1 7" INPUT1 $end
$var wire 1 8" INPUT2 $end
$var wire 1 9" SELECT $end
$var wire 1 :" OUTPUT $end
$upscope $end
$scope module MUX_C1R3 $end
$var wire 1 ;" INPUT1 $end
$var wire 1 <" INPUT2 $end
$var wire 1 =" SELECT $end
$var wire 1 >" OUTPUT $end
$upscope $end
$scope module MUX_C1R4 $end
$var wire 1 ?" INPUT1 $end
$var wire 1 @" INPUT2 $end
$var wire 1 A" SELECT $end
$var wire 1 B" OUTPUT $end
$upscope $end
$scope module MUX_C1R5 $end
$var wire 1 C" INPUT1 $end
$var wire 1 D" INPUT2 $end
$var wire 1 E" SELECT $end
$var wire 1 F" OUTPUT $end
$upscope $end
$scope module MUX_C1R6 $end
$var wire 1 G" INPUT1 $end
$var wire 1 H" INPUT2 $end
$var wire 1 I" SELECT $end
$var wire 1 J" OUTPUT $end
$upscope $end
$scope module MUX_C1R7 $end
$var wire 1 K" INPUT1 $end
$var wire 1 L" INPUT2 $end
$var wire 1 M" SELECT $end
$var wire 1 N" OUTPUT $end
$upscope $end
$scope module MUX_C2R0 $end
$var wire 1 O" INPUT1 $end
$var wire 1 P" INPUT2 $end
$var wire 1 Q" SELECT $end
$var wire 1 R" OUTPUT $end
$upscope $end
$scope module MUX_C2R1 $end
$var wire 1 S" INPUT1 $end
$var wire 1 T" INPUT2 $end
$var wire 1 U" SELECT $end
$var wire 1 V" OUTPUT $end
$upscope $end
$scope module MUX_C2R2 $end
$var wire 1 W" INPUT1 $end
$var wire 1 X" INPUT2 $end
$var wire 1 Y" SELECT $end
$var wire 1 Z" OUTPUT $end
$upscope $end
$scope module MUX_C2R3 $end
$var wire 1 [" INPUT1 $end
$var wire 1 \" INPUT2 $end
$var wire 1 ]" SELECT $end
$var wire 1 ^" OUTPUT $end
$upscope $end
$scope module MUX_C2R4 $end
$var wire 1 _" INPUT1 $end
$var wire 1 `" INPUT2 $end
$var wire 1 a" SELECT $end
$var wire 1 b" OUTPUT $end
$upscope $end
$scope module MUX_C2R5 $end
$var wire 1 c" INPUT1 $end
$var wire 1 d" INPUT2 $end
$var wire 1 e" SELECT $end
$var wire 1 f" OUTPUT $end
$upscope $end
$scope module MUX_C2R6 $end
$var wire 1 g" INPUT1 $end
$var wire 1 h" INPUT2 $end
$var wire 1 i" SELECT $end
$var wire 1 j" OUTPUT $end
$upscope $end
$scope module MUX_C2R7 $end
$var wire 1 k" INPUT1 $end
$var wire 1 l" INPUT2 $end
$var wire 1 m" SELECT $end
$var wire 1 n" OUTPUT $end
$upscope $end
$upscope $end
$scope module myBarrelShifter_LSL $end
$var wire 8 o" INPUT [7:0] $end
$var wire 3 p" SHIFT_AMOUNT [2:0] $end
$var wire 8 q" SHIFTED_OUTPUT [7:0] $end
$var wire 8 r" INTERIM_2 [7:0] $end
$var wire 8 s" INTERIM_1 [7:0] $end
$scope module MUX_C0R0 $end
$var wire 1 t" INPUT1 $end
$var wire 1 u" INPUT2 $end
$var wire 1 v" SELECT $end
$var wire 1 w" OUTPUT $end
$upscope $end
$scope module MUX_C0R1 $end
$var wire 1 x" INPUT1 $end
$var wire 1 y" INPUT2 $end
$var wire 1 z" SELECT $end
$var wire 1 {" OUTPUT $end
$upscope $end
$scope module MUX_C0R2 $end
$var wire 1 |" INPUT1 $end
$var wire 1 }" INPUT2 $end
$var wire 1 ~" SELECT $end
$var wire 1 !# OUTPUT $end
$upscope $end
$scope module MUX_C0R3 $end
$var wire 1 "# INPUT1 $end
$var wire 1 ## INPUT2 $end
$var wire 1 $# SELECT $end
$var wire 1 %# OUTPUT $end
$upscope $end
$scope module MUX_C0R4 $end
$var wire 1 &# INPUT1 $end
$var wire 1 '# INPUT2 $end
$var wire 1 (# SELECT $end
$var wire 1 )# OUTPUT $end
$upscope $end
$scope module MUX_C0R5 $end
$var wire 1 *# INPUT1 $end
$var wire 1 +# INPUT2 $end
$var wire 1 ,# SELECT $end
$var wire 1 -# OUTPUT $end
$upscope $end
$scope module MUX_C0R6 $end
$var wire 1 .# INPUT1 $end
$var wire 1 /# INPUT2 $end
$var wire 1 0# SELECT $end
$var wire 1 1# OUTPUT $end
$upscope $end
$scope module MUX_C0R7 $end
$var wire 1 2# INPUT1 $end
$var wire 1 3# INPUT2 $end
$var wire 1 4# SELECT $end
$var wire 1 5# OUTPUT $end
$upscope $end
$scope module MUX_C1R0 $end
$var wire 1 6# INPUT1 $end
$var wire 1 7# INPUT2 $end
$var wire 1 8# SELECT $end
$var wire 1 9# OUTPUT $end
$upscope $end
$scope module MUX_C1R1 $end
$var wire 1 :# INPUT1 $end
$var wire 1 ;# INPUT2 $end
$var wire 1 <# SELECT $end
$var wire 1 =# OUTPUT $end
$upscope $end
$scope module MUX_C1R2 $end
$var wire 1 ># INPUT1 $end
$var wire 1 ?# INPUT2 $end
$var wire 1 @# SELECT $end
$var wire 1 A# OUTPUT $end
$upscope $end
$scope module MUX_C1R3 $end
$var wire 1 B# INPUT1 $end
$var wire 1 C# INPUT2 $end
$var wire 1 D# SELECT $end
$var wire 1 E# OUTPUT $end
$upscope $end
$scope module MUX_C1R4 $end
$var wire 1 F# INPUT1 $end
$var wire 1 G# INPUT2 $end
$var wire 1 H# SELECT $end
$var wire 1 I# OUTPUT $end
$upscope $end
$scope module MUX_C1R5 $end
$var wire 1 J# INPUT1 $end
$var wire 1 K# INPUT2 $end
$var wire 1 L# SELECT $end
$var wire 1 M# OUTPUT $end
$upscope $end
$scope module MUX_C1R6 $end
$var wire 1 N# INPUT1 $end
$var wire 1 O# INPUT2 $end
$var wire 1 P# SELECT $end
$var wire 1 Q# OUTPUT $end
$upscope $end
$scope module MUX_C1R7 $end
$var wire 1 R# INPUT1 $end
$var wire 1 S# INPUT2 $end
$var wire 1 T# SELECT $end
$var wire 1 U# OUTPUT $end
$upscope $end
$scope module MUX_C2R0 $end
$var wire 1 V# INPUT1 $end
$var wire 1 W# INPUT2 $end
$var wire 1 X# SELECT $end
$var wire 1 Y# OUTPUT $end
$upscope $end
$scope module MUX_C2R1 $end
$var wire 1 Z# INPUT1 $end
$var wire 1 [# INPUT2 $end
$var wire 1 \# SELECT $end
$var wire 1 ]# OUTPUT $end
$upscope $end
$scope module MUX_C2R2 $end
$var wire 1 ^# INPUT1 $end
$var wire 1 _# INPUT2 $end
$var wire 1 `# SELECT $end
$var wire 1 a# OUTPUT $end
$upscope $end
$scope module MUX_C2R3 $end
$var wire 1 b# INPUT1 $end
$var wire 1 c# INPUT2 $end
$var wire 1 d# SELECT $end
$var wire 1 e# OUTPUT $end
$upscope $end
$scope module MUX_C2R4 $end
$var wire 1 f# INPUT1 $end
$var wire 1 g# INPUT2 $end
$var wire 1 h# SELECT $end
$var wire 1 i# OUTPUT $end
$upscope $end
$scope module MUX_C2R5 $end
$var wire 1 j# INPUT1 $end
$var wire 1 k# INPUT2 $end
$var wire 1 l# SELECT $end
$var wire 1 m# OUTPUT $end
$upscope $end
$scope module MUX_C2R6 $end
$var wire 1 n# INPUT1 $end
$var wire 1 o# INPUT2 $end
$var wire 1 p# SELECT $end
$var wire 1 q# OUTPUT $end
$upscope $end
$scope module MUX_C2R7 $end
$var wire 1 r# INPUT1 $end
$var wire 1 s# INPUT2 $end
$var wire 1 t# SELECT $end
$var wire 1 u# OUTPUT $end
$upscope $end
$upscope $end
$scope module myBarrelShifter_LSR $end
$var wire 8 v# INPUT [7:0] $end
$var wire 3 w# SHIFT_AMOUNT [2:0] $end
$var wire 8 x# SHIFTED_OUTPUT [7:0] $end
$var wire 8 y# INTERIM_2 [7:0] $end
$var wire 8 z# INTERIM_1 [7:0] $end
$scope module MUX_C0R0 $end
$var wire 1 {# INPUT1 $end
$var wire 1 |# INPUT2 $end
$var wire 1 }# SELECT $end
$var wire 1 ~# OUTPUT $end
$upscope $end
$scope module MUX_C0R1 $end
$var wire 1 !$ INPUT1 $end
$var wire 1 "$ INPUT2 $end
$var wire 1 #$ SELECT $end
$var wire 1 $$ OUTPUT $end
$upscope $end
$scope module MUX_C0R2 $end
$var wire 1 %$ INPUT1 $end
$var wire 1 &$ INPUT2 $end
$var wire 1 '$ SELECT $end
$var wire 1 ($ OUTPUT $end
$upscope $end
$scope module MUX_C0R3 $end
$var wire 1 )$ INPUT1 $end
$var wire 1 *$ INPUT2 $end
$var wire 1 +$ SELECT $end
$var wire 1 ,$ OUTPUT $end
$upscope $end
$scope module MUX_C0R4 $end
$var wire 1 -$ INPUT1 $end
$var wire 1 .$ INPUT2 $end
$var wire 1 /$ SELECT $end
$var wire 1 0$ OUTPUT $end
$upscope $end
$scope module MUX_C0R5 $end
$var wire 1 1$ INPUT1 $end
$var wire 1 2$ INPUT2 $end
$var wire 1 3$ SELECT $end
$var wire 1 4$ OUTPUT $end
$upscope $end
$scope module MUX_C0R6 $end
$var wire 1 5$ INPUT1 $end
$var wire 1 6$ INPUT2 $end
$var wire 1 7$ SELECT $end
$var wire 1 8$ OUTPUT $end
$upscope $end
$scope module MUX_C0R7 $end
$var wire 1 9$ INPUT1 $end
$var wire 1 :$ INPUT2 $end
$var wire 1 ;$ SELECT $end
$var wire 1 <$ OUTPUT $end
$upscope $end
$scope module MUX_C1R0 $end
$var wire 1 =$ INPUT1 $end
$var wire 1 >$ INPUT2 $end
$var wire 1 ?$ SELECT $end
$var wire 1 @$ OUTPUT $end
$upscope $end
$scope module MUX_C1R1 $end
$var wire 1 A$ INPUT1 $end
$var wire 1 B$ INPUT2 $end
$var wire 1 C$ SELECT $end
$var wire 1 D$ OUTPUT $end
$upscope $end
$scope module MUX_C1R2 $end
$var wire 1 E$ INPUT1 $end
$var wire 1 F$ INPUT2 $end
$var wire 1 G$ SELECT $end
$var wire 1 H$ OUTPUT $end
$upscope $end
$scope module MUX_C1R3 $end
$var wire 1 I$ INPUT1 $end
$var wire 1 J$ INPUT2 $end
$var wire 1 K$ SELECT $end
$var wire 1 L$ OUTPUT $end
$upscope $end
$scope module MUX_C1R4 $end
$var wire 1 M$ INPUT1 $end
$var wire 1 N$ INPUT2 $end
$var wire 1 O$ SELECT $end
$var wire 1 P$ OUTPUT $end
$upscope $end
$scope module MUX_C1R5 $end
$var wire 1 Q$ INPUT1 $end
$var wire 1 R$ INPUT2 $end
$var wire 1 S$ SELECT $end
$var wire 1 T$ OUTPUT $end
$upscope $end
$scope module MUX_C1R6 $end
$var wire 1 U$ INPUT1 $end
$var wire 1 V$ INPUT2 $end
$var wire 1 W$ SELECT $end
$var wire 1 X$ OUTPUT $end
$upscope $end
$scope module MUX_C1R7 $end
$var wire 1 Y$ INPUT1 $end
$var wire 1 Z$ INPUT2 $end
$var wire 1 [$ SELECT $end
$var wire 1 \$ OUTPUT $end
$upscope $end
$scope module MUX_C2R0 $end
$var wire 1 ]$ INPUT1 $end
$var wire 1 ^$ INPUT2 $end
$var wire 1 _$ SELECT $end
$var wire 1 `$ OUTPUT $end
$upscope $end
$scope module MUX_C2R1 $end
$var wire 1 a$ INPUT1 $end
$var wire 1 b$ INPUT2 $end
$var wire 1 c$ SELECT $end
$var wire 1 d$ OUTPUT $end
$upscope $end
$scope module MUX_C2R2 $end
$var wire 1 e$ INPUT1 $end
$var wire 1 f$ INPUT2 $end
$var wire 1 g$ SELECT $end
$var wire 1 h$ OUTPUT $end
$upscope $end
$scope module MUX_C2R3 $end
$var wire 1 i$ INPUT1 $end
$var wire 1 j$ INPUT2 $end
$var wire 1 k$ SELECT $end
$var wire 1 l$ OUTPUT $end
$upscope $end
$scope module MUX_C2R4 $end
$var wire 1 m$ INPUT1 $end
$var wire 1 n$ INPUT2 $end
$var wire 1 o$ SELECT $end
$var wire 1 p$ OUTPUT $end
$upscope $end
$scope module MUX_C2R5 $end
$var wire 1 q$ INPUT1 $end
$var wire 1 r$ INPUT2 $end
$var wire 1 s$ SELECT $end
$var wire 1 t$ OUTPUT $end
$upscope $end
$scope module MUX_C2R6 $end
$var wire 1 u$ INPUT1 $end
$var wire 1 v$ INPUT2 $end
$var wire 1 w$ SELECT $end
$var wire 1 x$ OUTPUT $end
$upscope $end
$scope module MUX_C2R7 $end
$var wire 1 y$ INPUT1 $end
$var wire 1 z$ INPUT2 $end
$var wire 1 {$ SELECT $end
$var wire 1 |$ OUTPUT $end
$upscope $end
$upscope $end
$scope module myControl_unit $end
$var wire 1 5 CLK $end
$var wire 1 6 RESET $end
$var wire 8 }$ SHIFT_ASR [7:0] $end
$var wire 8 ~$ SHIFT_LSL [7:0] $end
$var wire 8 !% SHIFT_LSR [7:0] $end
$var wire 8 "% SHIFT_ROR [7:0] $end
$var wire 32 #% newPC [31:0] $end
$var wire 3 $% WRITEREG [2:0] $end
$var wire 3 %% SHIFT_AMOUNT [2:0] $end
$var wire 3 &% READREG2 [2:0] $end
$var wire 3 '% READREG1 [2:0] $end
$var wire 8 (% PC_offset [7:0] $end
$var wire 1 / INSTRUCT_CACHE_BUSYWAIT $end
$var wire 32 )% INSTRCT_ARRAY [31:0] $end
$var wire 8 *% IM_INPUT [7:0] $end
$var wire 1 3 CACHE_BUSYWAIT $end
$var reg 3 +% ALU_OP [2:0] $end
$var reg 1 \ BEQ_SELECT $end
$var reg 1 [ BNE_SELECT $end
$var reg 1 U ImMUX_SELECT $end
$var reg 1 S InvtMUX_SELECT $end
$var reg 32 ,% PC [31:0] $end
$var reg 1 % READENABLE_CACHE $end
$var reg 1 G RegFileInMUX_SEL $end
$var reg 3 -% SELECT_32x1 [2:0] $end
$var reg 1 C WRITEENABLE $end
$var reg 1 " WRITEENABLE_CACHE $end
$var reg 1 A jump_SELECT $end
$upscope $end
$scope module myImmediate_MUX $end
$var wire 8 .% IM_INPUT [7:0] $end
$var wire 1 U ImMUX_SELECT $end
$var wire 8 /% INPUT [7:0] $end
$var reg 8 0% OUTPUT [7:0] $end
$upscope $end
$scope module myInverter $end
$var wire 8 1% INPUT [7:0] $end
$var reg 8 2% COMPLIMENT [7:0] $end
$upscope $end
$scope module myInverter_MUX $end
$var wire 8 3% INVRTD_INPUT [7:0] $end
$var wire 1 S InvtMUX_SELECT $end
$var wire 8 4% INPUT [7:0] $end
$var reg 8 5% OUTPUT [7:0] $end
$upscope $end
$scope module myPC_Incrementer $end
$var wire 32 6% PC [31:0] $end
$var reg 32 7% updatedPC [31:0] $end
$upscope $end
$scope module myPC_MUX $end
$var wire 1 7 PC_SELECT $end
$var wire 32 8% updatedPC [31:0] $end
$var wire 32 9% offsettedPC [31:0] $end
$var reg 32 :% newPC [31:0] $end
$upscope $end
$scope module myPC_updater $end
$var wire 8 ;% PC_offset [7:0] $end
$var wire 32 <% updatedPC [31:0] $end
$var reg 32 =% offsettedPC [31:0] $end
$upscope $end
$scope module myREGIN_MUX $end
$var wire 1 G RegFileInMUX_SEL $end
$var wire 8 >% SELECT_32x1_MUXOUT [7:0] $end
$var wire 8 ?% DataMem_READDATA [7:0] $end
$var reg 8 @% REGWRITE_FINAL [7:0] $end
$upscope $end
$scope module myREG_file $end
$var wire 1 5 CLK $end
$var wire 3 A% READREG1 [2:0] $end
$var wire 3 B% READREG2 [2:0] $end
$var wire 8 C% REGOUT1 [7:0] $end
$var wire 8 D% REGOUT2 [7:0] $end
$var wire 8 E% REGWRITE [7:0] $end
$var wire 1 6 RESET $end
$var wire 1 C WRITEENABLE $end
$var wire 3 F% WRITEREG [2:0] $end
$var integer 32 G% i [31:0] $end
$upscope $end
$scope module myRotate_Right $end
$var wire 8 H% INPUT [7:0] $end
$var wire 3 I% SHIFT_AMOUNT [2:0] $end
$var reg 8 J% SHIFTED_OUTPUT [7:0] $end
$upscope $end
$scope module mySELECT_32x8_MUX $end
$var wire 8 K% ALU_RESULT [7:0] $end
$var wire 8 L% ASR_SHIFTER_OUT [7:0] $end
$var wire 8 M% LSL_SHIFTER_OUT [7:0] $end
$var wire 8 N% LSR_SHIFTER_OUT [7:0] $end
$var wire 8 O% ROR_SHIFTER_OUT [7:0] $end
$var wire 3 P% SELECT_32x1 [2:0] $end
$var reg 8 Q% SELECT_32x1_MUXOUT [7:0] $end
$upscope $end
$upscope $end
$scope module myCache_Controller $end
$var wire 8 R% ADDRESS [7:0] $end
$var wire 8 S% CACHE_WRITEDATA [7:0] $end
$var wire 1 5 CLK $end
$var wire 1 % READENABLE_CACHE $end
$var wire 1 6 RESET $end
$var wire 3 T% TAG [2:0] $end
$var wire 1 " WRITEENABLE_CACHE $end
$var wire 1 U% VALID $end
$var wire 32 V% MEM_READDATA [31:0] $end
$var wire 1 ) MEM_BUSYWAIT $end
$var wire 1 W% DIRTY $end
$var wire 1 X% Cache_HIT $end
$var reg 1 3 CACHE_BUSYWAIT $end
$var reg 8 Y% CACHE_READDATA [7:0] $end
$var reg 8 Z% DirtyBit_array [7:0] $end
$var reg 6 [% MEM_ADDRESS [5:0] $end
$var reg 32 \% MEM_WRITEDATA [31:0] $end
$var reg 1 $ READENABLE_MEM $end
$var reg 8 ]% ValidBit_array [7:0] $end
$var reg 1 ! WRITEENABLE_MEM $end
$var reg 2 ^% next_state [1:0] $end
$var reg 2 _% state [1:0] $end
$var integer 32 `% i [31:0] $end
$upscope $end
$scope module myData_Memory $end
$var wire 6 a% address [5:0] $end
$var wire 1 5 clock $end
$var wire 1 $ read $end
$var wire 1 6 reset $end
$var wire 1 ! write $end
$var wire 32 b% writedata [31:0] $end
$var reg 1 ) busywait $end
$var reg 1 c% readaccess $end
$var reg 32 d% readdata [31:0] $end
$var reg 1 e% writeaccess $end
$var integer 32 f% i [31:0] $end
$upscope $end
$scope module myInstruct_Cache_Controller $end
$var wire 1 5 CLK $end
$var wire 10 g% INSTRUCT_ADDRESS [9:0] $end
$var wire 1 6 RESET $end
$var wire 3 h% TAG [2:0] $end
$var wire 1 i% VALID $end
$var wire 128 j% INSTRUCT_MEM_READDATA [127:0] $end
$var wire 1 - INSTRUCT_MEM_BUSYWAIT $end
$var wire 1 k% Cache_HIT $end
$var wire 1 l% Activator $end
$var reg 32 m% INSTRUCTION [31:0] $end
$var reg 1 / INSTRUCT_CACHE_BUSYWAIT $end
$var reg 6 n% INSTRUCT_MEM_ADDRESS [5:0] $end
$var reg 1 + INSTRUCT_MEM_READENABLE $end
$var reg 8 o% ValidBit_array [7:0] $end
$var integer 32 p% i [31:0] $end
$upscope $end
$scope module myInstruction_Data_Memory $end
$var wire 6 q% address [5:0] $end
$var wire 1 5 clock $end
$var wire 1 + read $end
$var reg 1 - busywait $end
$var reg 1 r% readaccess $end
$var reg 128 s% readdata [127:0] $end
$upscope $end
$upscope $end
$enddefinitions $end
#0
$dumpvars
bx s%
0r%
bx q%
b1000 p%
b0 o%
bx n%
bx m%
0l%
xk%
bx j%
xi%
bx h%
b1111111100 g%
b100000000 f%
0e%
bx d%
0c%
b0xxxxxxxx b%
bx a%
b1000 `%
b0 _%
b0 ^%
b0 ]%
b0xxxxxxxx \%
bx [%
b11111111 Z%
bx Y%
xX%
xW%
bx V%
xU%
bx T%
bx S%
bx R%
bx Q%
bx P%
bx O%
bx N%
bx M%
bx L%
bx K%
bx J%
bx I%
bx H%
bx G%
bx F%
bx E%
bx D%
bx C%
bx B%
bx A%
bx @%
bx ?%
bx >%
bx =%
bx <%
bx ;%
bx :%
bx 9%
bx 8%
bx 7%
b11111111111111111111111111111100 6%
bx 5%
bx 4%
bx 3%
bx 2%
bx 1%
bx 0%
bx /%
bx .%
bx -%
b11111111111111111111111111111100 ,%
bx +%
bx *%
bx )%
bx (%
bx '%
bx &%
bx %%
bx $%
bx #%
bx "%
bx !%
bx ~$
bx }$
x|$
x{$
xz$
xy$
xx$
xw$
xv$
xu$
xt$
xs$
xr$
xq$
xp$
xo$
xn$
xm$
xl$
xk$
xj$
0i$
xh$
xg$
xf$
0e$
xd$
xc$
xb$
0a$
x`$
x_$
x^$
0]$
x\$
x[$
xZ$
xY$
xX$
xW$
xV$
xU$
xT$
xS$
xR$
xQ$
xP$
xO$
xN$
xM$
xL$
xK$
xJ$
xI$
xH$
xG$
xF$
xE$
xD$
xC$
xB$
0A$
x@$
x?$
x>$
0=$
x<$
x;$
x:$
x9$
x8$
x7$
x6$
x5$
x4$
x3$
x2$
x1$
x0$
x/$
x.$
x-$
x,$
x+$
x*$
x)$
x($
x'$
x&$
x%$
x$$
x#$
x"$
x!$
x~#
x}#
x|#
0{#
bx z#
bx y#
bx x#
bx w#
bx v#
xu#
xt#
xs#
xr#
xq#
xp#
xo#
xn#
xm#
xl#
xk#
xj#
xi#
xh#
xg#
xf#
xe#
xd#
xc#
0b#
xa#
x`#
x_#
0^#
x]#
x\#
x[#
0Z#
xY#
xX#
xW#
0V#
xU#
xT#
xS#
xR#
xQ#
xP#
xO#
xN#
xM#
xL#
xK#
xJ#
xI#
xH#
xG#
xF#
xE#
xD#
xC#
xB#
xA#
x@#
x?#
x>#
x=#
x<#
x;#
0:#
x9#
x8#
x7#
06#
x5#
x4#
x3#
x2#
x1#
x0#
x/#
x.#
x-#
x,#
x+#
x*#
x)#
x(#
x'#
x&#
x%#
x$#
x##
x"#
x!#
x~"
x}"
x|"
x{"
xz"
xy"
xx"
xw"
xv"
xu"
0t"
bx s"
bx r"
bx q"
bx p"
bx o"
xn"
xm"
xl"
xk"
xj"
xi"
xh"
xg"
xf"
xe"
xd"
xc"
xb"
xa"
x`"
x_"
x^"
x]"
x\"
x["
xZ"
xY"
xX"
xW"
xV"
xU"
xT"
xS"
xR"
xQ"
xP"
xO"
xN"
xM"
xL"
xK"
xJ"
xI"
xH"
xG"
xF"
xE"
xD"
xC"
xB"
xA"
x@"
x?"
x>"
x="
x<"
x;"
x:"
x9"
x8"
x7"
x6"
x5"
x4"
x3"
x2"
x1"
x0"
x/"
x."
x-"
x,"
x+"
x*"
x)"
x("
x'"
x&"
x%"
x$"
x#"
x""
x!"
x~
x}
x|
x{
xz
xy
xx
xw
xv
xu
xt
xs
xr
xq
xp
xo
xn
xm
bx l
bx k
bx j
bx i
bx h
bx g
bx f
bx e
bx d
bx c
bx b
bx a
bx `
bx _
bx ^
bx ]
x\
x[
bx Z
xY
bx X
bx W
bx V
xU
bx T
xS
bx R
bx Q
bx P
b11111111111111111111111111111100 O
bx N
bx M
bx L
bx K
bx J
bx I
bx H
xG
bx F
bx E
bx D
xC
bx B
xA
bx @
bx ?
bx >
x=
x<
bx ;
bx :
bx 9
bx 8
x7
16
05
bx 4
03
bx 2
bx 1
b1111111100 0
1/
bx .
0-
bx ,
x+
bx *
0)
bx (
b0xxxxxxxx '
b11111111111111111111111111111100 &
x%
0$
bx #
x"
0!
$end
#10
b0 @
b0 #%
b0 :%
0i%
b0 >
b0 7%
b0 8%
b0 <%
0+
b10000000 o%
#19
0k%
#20
1l%
1i%
b111 h%
b1000 G%
06
#29
1k%
#40
0/
15
#50
1/
b0 0
b0 g%
b0 &
b0 O
b0 ,%
b0 6%
#59
0k%
#60
b100 @
b100 #%
b100 :%
bx h%
0i%
b100 >
b100 7%
b100 8%
b100 <%
#80
05
#120
1r%
1-
b0 .
b0 n%
b0 q%
1+
15
#160
05
#200
15
#240
05
#280
15
#320
05
#360
15
#400
05
#440
15
#480
05
#520
15
#560
05
#600
15
bx00001010 ,
bx00001010 j%
bx00001010 s%
#640
05
#680
15
#720
05
#760
15
#800
05
#840
15
#880
05
#920
15
#960
05
#1000
15
bx0000000000001010 ,
bx0000000000001010 j%
bx0000000000001010 s%
#1040
05
#1080
15
#1120
05
#1160
15
#1200
05
#1240
15
#1280
05
#1320
15
#1360
05
#1400
15
bx000000000000000000001010 ,
bx000000000000000000001010 j%
bx000000000000000000001010 s%
#1440
05
#1480
15
#1520
05
#1560
15
#1600
05
#1640
15
#1680
05
#1720
15
#1760
05
